<svg width="20" height="20" viewBox="0 0 20 20" fill="none" xmlns="http://www.w3.org/2000/svg">
<g clip-path="url(#clip0_400_2599)">
<path d="M14.1318 6.6841C13.8864 6.56485 13.8455 6.28661 14.0091 6.08787C14.1318 5.92887 14.2545 5.76987 14.3364 5.61088C15.1136 4.29916 15.0727 2.7887 14.1727 2.31172C13.9682 2.19247 13.7636 2.15272 13.5182 2.15272C13.2727 2.15272 13.0682 2.19247 12.8227 2.31172C12.7818 2.35146 12.7 2.35146 12.6591 2.35146C12.5364 2.35146 12.4136 2.31172 12.3318 2.19247C11.8 1.47699 10.9409 1 9.95909 1C8.97727 1 8.11818 1.47699 7.58636 2.19247C7.50455 2.31172 7.38182 2.35146 7.25909 2.35146C7.21818 2.35146 7.13636 2.35146 7.09545 2.31172C6.89091 2.15272 6.64545 2.11297 6.44091 2.11297C6.19545 2.11297 5.99091 2.15272 5.78636 2.27197C4.92727 2.74895 4.84545 4.25941 5.62273 5.57113C5.74545 5.73013 5.82727 5.92887 5.95 6.04812C6.11364 6.24686 6.07273 6.5251 5.82727 6.64435C2.96364 8.11506 1 11.0565 1 14.4351C1 16.1444 1.57273 17.7343 2.51364 19.046C2.96364 19.6423 3.7 20 4.47727 20H15.5227C16.3 20 17.0364 19.6423 17.4864 19.046C18.4273 17.7343 19 16.1444 19 14.4351C19 11.0565 17.0364 8.11506 14.1318 6.6841ZM10 17.2176C10 15.0314 8.15909 13.2427 5.90909 13.2427C8.15909 13.2427 10 11.454 10 9.26778C10 11.454 11.8409 13.2427 14.0909 13.2427C11.8409 13.2427 10 15.0314 10 17.2176Z" fill="#4181ED"/>
</g>
<defs>
<clipPath id="clip0_400_2599">
<rect width="19.9999" height="19.9999" fill="white"/>
</clipPath>
</defs>
</svg>
