<svg width="78" height="78" viewBox="0 0 78 78" fill="none" xmlns="http://www.w3.org/2000/svg">
<circle cx="39" cy="39" r="38" stroke="#FFD4A6" stroke-width="2"/>
<path d="M40.8438 40.8536V56.6847C40.8438 56.8694 40.6926 57.0206 40.5078 57.0206H38.4922C38.3074 57.0206 38.1562 56.8694 38.1562 56.6847V40.8536H20.6875V57.0206C20.6875 58.5029 21.8927 59.7081 23.375 59.7081H55.625C57.1115 59.7081 58.3125 58.5029 58.3125 57.0206V40.8536H40.8438ZM55.625 26.1143H53.8613C53.5926 26.1143 53.433 25.812 53.5842 25.5894C54.2393 24.6152 54.5584 23.5444 54.4912 22.482C54.4114 21.2139 53.7731 20.1137 52.652 19.299C51.8457 18.7153 50.7749 18.2912 49.6411 18.098C47.5835 17.7537 45.4041 18.3374 43.4977 19.7483C42.473 20.5084 41.5408 21.4784 40.7094 22.6542C40.1761 23.4058 39.0549 23.4058 38.5216 22.6542C37.6901 21.4784 36.7579 20.5042 35.7333 19.7483C33.8311 18.3374 31.6517 17.7495 29.594 18.098C28.4603 18.2912 27.3895 18.7153 26.5832 19.299C25.462 20.1095 24.8237 21.2097 24.7439 22.482C24.6768 23.5444 24.9917 24.6152 25.651 25.5894C25.8021 25.812 25.6468 26.1143 25.3738 26.1143H23.375C20.4062 26.1143 18 28.5205 18 31.4893V36.8643C18 37.49 18.4283 38.0191 19.0078 38.1661H59.9922C60.5717 38.0191 61 37.49 61 36.8643V31.4893C61 28.5205 58.5938 26.1143 55.625 26.1143ZM42.0237 25.6146C44.2577 21.5624 47.088 20.3908 49.1918 20.7477C49.4479 20.7897 51.7113 21.2139 51.8079 22.6542C51.8877 23.9098 50.502 25.5726 48.1126 26.1143H42.3177C42.0615 26.1143 41.902 25.8414 42.0237 25.6146ZM27.423 22.6542C27.5154 21.2139 29.7788 20.7939 30.0392 20.7477C32.1472 20.395 34.9774 21.5624 37.2072 25.6146C37.3332 25.8372 37.1694 26.1143 36.9133 26.1143H31.1184C28.7332 25.5684 27.3433 23.9098 27.423 22.6542Z" fill="url(#paint0_linear_11_856)"/>
<defs>
<linearGradient id="paint0_linear_11_856" x1="61" y1="38.854" x2="18" y2="38.854" gradientUnits="userSpaceOnUse">
<stop stop-color="#FFC383"/>
<stop offset="1" stop-color="#FFEDD8"/>
</linearGradient>
</defs>
</svg>
