<svg width="50" height="50" viewBox="0 0 50 50" fill="none" xmlns="http://www.w3.org/2000/svg">
<g filter="url(#filter0_i_187_641)">
<circle cx="25" cy="25" r="25" fill="url(#paint0_linear_187_641)"/>
</g>
<circle cx="25" cy="25" r="24.5" stroke="#474D5C"/>
<g clip-path="url(#clip0_187_641)">
<path d="M28.3897 26.1426C26.5006 26.1426 24.7258 25.4062 23.3903 24.0707C22.0547 22.7352 21.3184 20.9604 21.3184 19.0713C21.3184 17.1822 22.0547 15.4074 23.3903 14.0719C24.7258 12.7363 26.5006 12 28.3897 12C30.2787 12 32.0535 12.7363 33.3891 14.0719C34.7246 15.4074 35.461 17.1822 35.461 19.0713C35.461 20.9604 34.7246 22.7352 33.3891 24.0707C32.0535 25.4062 30.2787 26.1426 28.3897 26.1426ZM28.3897 14.2852C25.7516 14.2852 23.6035 16.4332 23.6035 19.0713C23.6035 21.7094 25.7516 23.8574 28.3897 23.8574C31.0278 23.8574 33.1758 21.7094 33.1758 19.0713C33.1758 16.4332 31.0278 14.2852 28.3897 14.2852ZM35.7149 37.9467H21.0645C20.3789 37.9467 19.7416 37.6064 19.3151 37.0098C18.8022 36.2963 18.6651 35.3188 18.9545 34.458C19.2516 33.5744 19.7162 32.7441 20.3332 31.9875C20.9299 31.2537 21.6561 30.6113 22.4914 30.073C24.2028 28.9736 26.2416 28.3922 28.3897 28.3922C30.5377 28.3922 32.5766 28.9736 34.2879 30.073C35.1233 30.6113 35.8494 31.2537 36.4461 31.9875C37.0631 32.7441 37.5252 33.5744 37.8248 34.458C38.1143 35.3188 37.9772 36.2963 37.4643 37.0098C37.0377 37.6064 36.3979 37.9467 35.7149 37.9467ZM21.161 35.6615H35.6184C35.6692 35.5803 35.725 35.3898 35.6565 35.1893C34.7602 32.5334 31.7717 30.6773 28.3871 30.6773C25.0026 30.6773 22.0141 32.5334 21.1178 35.1893C21.0543 35.3924 21.1102 35.5803 21.161 35.6615ZM19.8838 28.5928C18.3248 28.5928 16.8573 27.9859 15.7528 26.8814C14.6508 25.7795 14.0414 24.3119 14.0414 22.7504C14.0414 20.4221 15.4201 18.3197 17.558 17.3904C18.1369 17.1391 18.8098 17.4057 19.0612 17.982C19.3125 18.5609 19.0459 19.2338 18.4696 19.4852C17.1696 20.0488 16.3291 21.3311 16.3291 22.7479C16.3291 24.708 17.9237 26.3025 19.8838 26.3025C20.4602 26.3025 21.0112 26.168 21.519 25.9039C22.0801 25.6119 22.7682 25.8303 23.0602 26.3914C23.3522 26.9525 23.1338 27.6406 22.5727 27.9326C21.7475 28.3668 20.8182 28.5928 19.8838 28.5928ZM16.253 37.9467H14.0795C13.46 37.9467 12.8836 37.6395 12.5002 37.1062C12.0508 36.4816 11.9289 35.6234 12.1828 34.8719C12.5612 33.7471 13.2772 32.7162 14.2471 31.891C15.1942 31.0887 16.3647 30.4945 17.6393 30.1771C18.2512 30.0248 18.8707 30.3955 19.0256 31.01C19.178 31.6219 18.8073 32.2414 18.1928 32.3963C16.3317 32.8609 14.859 34.0898 14.3487 35.6057C14.341 35.626 14.3385 35.6488 14.336 35.6666H16.253C16.8852 35.6666 17.3955 36.177 17.3955 36.8092C17.3955 37.4414 16.8826 37.9467 16.253 37.9467Z" fill="white"/>
</g>
<defs>
<filter id="filter0_i_187_641" x="0" y="0" width="50" height="51" filterUnits="userSpaceOnUse" color-interpolation-filters="sRGB">
<feFlood flood-opacity="0" result="BackgroundImageFix"/>
<feBlend mode="normal" in="SourceGraphic" in2="BackgroundImageFix" result="shape"/>
<feColorMatrix in="SourceAlpha" type="matrix" values="0 0 0 0 0 0 0 0 0 0 0 0 0 0 0 0 0 0 127 0" result="hardAlpha"/>
<feOffset dy="1"/>
<feGaussianBlur stdDeviation="2.5"/>
<feComposite in2="hardAlpha" operator="arithmetic" k2="-1" k3="1"/>
<feColorMatrix type="matrix" values="0 0 0 0 1 0 0 0 0 1 0 0 0 0 1 0 0 0 0.159212 0"/>
<feBlend mode="normal" in2="shape" result="effect1_innerShadow_187_641"/>
</filter>
<linearGradient id="paint0_linear_187_641" x1="0" y1="0" x2="0" y2="50" gradientUnits="userSpaceOnUse">
<stop stop-color="#3F4553"/>
<stop offset="1" stop-color="#242A39"/>
</linearGradient>
<clipPath id="clip0_187_641">
<rect width="26" height="26" fill="white" transform="translate(12 12)"/>
</clipPath>
</defs>
</svg>
