<svg width="48" height="48" viewBox="0 0 48 48" fill="none" xmlns="http://www.w3.org/2000/svg">
<path fill-rule="evenodd" clip-rule="evenodd" d="M24 48C37.2548 48 48 37.2548 48 24C48 10.7452 37.2548 0 24 0C10.7452 0 0 10.7452 0 24C0 37.2548 10.7452 48 24 48ZM14.5 24C16.433 24 18 22.433 18 20.5C18 18.567 16.433 17 14.5 17C12.567 17 11 18.567 11 20.5C11 22.433 12.567 24 14.5 24ZM37 22C37 19.2386 34.7614 17 32 17C29.2386 17 27 19.2386 27 22H30.063C30.285 21.1374 31.0681 20.5 32 20.5C32.9319 20.5 33.715 21.1374 33.937 22H37ZM14.0129 28C14.2729 33.0143 18.421 37 23.5 37C28.579 37 32.7271 33.0143 32.9871 28H14.0129Z" fill="url(#paint0_linear_0_2861)"/>
<defs>
<linearGradient id="paint0_linear_0_2861" x1="0" y1="0" x2="0" y2="48" gradientUnits="userSpaceOnUse">
<stop stop-color="#7B8398"/>
<stop offset="1" stop-color="#4E5568"/>
</linearGradient>
</defs>
</svg>
